ram.vcd
$version Generated by VerilatedVcd $end
$date Sat Nov 22 13:33:25 2014
 $end
$timescale 1ns $end

 $scope module TOP $end
  $var wire  4 6 addr [3:0] $end
  $var wire  1 3 clk $end
  $var wire  4 9 data(0) [3:0] $end
  $var wire  4 : data(1) [3:0] $end
  $var wire  4 C data(10) [3:0] $end
  $var wire  4 D data(11) [3:0] $end
  $var wire  4 E data(12) [3:0] $end
  $var wire  4 F data(13) [3:0] $end
  $var wire  4 G data(14) [3:0] $end
  $var wire  4 H data(15) [3:0] $end
  $var wire  4 ; data(2) [3:0] $end
  $var wire  4 < data(3) [3:0] $end
  $var wire  4 = data(4) [3:0] $end
  $var wire  4 > data(5) [3:0] $end
  $var wire  4 ? data(6) [3:0] $end
  $var wire  4 @ data(7) [3:0] $end
  $var wire  4 A data(8) [3:0] $end
  $var wire  4 B data(9) [3:0] $end
  $var wire  4 7 datain [3:0] $end
  $var wire  4 8 dataout [3:0] $end
  $var wire  4 I i [3:0] $end
  $var wire  1 4 rst $end
  $var wire  1 5 rw $end
  $scope module v $end
   $var wire  4 6 addr [3:0] $end
   $var wire 32 J addr_width [31:0] $end
   $var wire  1 3 clk $end
   $var wire  4 # data(0) [3:0] $end
   $var wire  4 $ data(1) [3:0] $end
   $var wire  4 - data(10) [3:0] $end
   $var wire  4 . data(11) [3:0] $end
   $var wire  4 / data(12) [3:0] $end
   $var wire  4 0 data(13) [3:0] $end
   $var wire  4 1 data(14) [3:0] $end
   $var wire  4 2 data(15) [3:0] $end
   $var wire  4 % data(2) [3:0] $end
   $var wire  4 & data(3) [3:0] $end
   $var wire  4 ' data(4) [3:0] $end
   $var wire  4 ( data(5) [3:0] $end
   $var wire  4 ) data(6) [3:0] $end
   $var wire  4 * data(7) [3:0] $end
   $var wire  4 + data(8) [3:0] $end
   $var wire  4 , data(9) [3:0] $end
   $var wire 32 J data_width [31:0] $end
   $var wire  4 7 datain [3:0] $end
   $var wire  4 8 dataout [3:0] $end
   $var wire  4 I i [3:0] $end
   $var wire  1 4 rst $end
   $var wire  1 5 rw $end
  $upscope $end
 $upscope $end
$enddefinitions $end


#0
b0000 #
b0000 $
b0000 %
b0000 &
b0000 '
b0000 (
b0000 )
b0000 *
b0000 +
b0000 ,
b0000 -
b0000 .
b0000 /
b0000 0
b0000 1
b0000 2
03
04
15
b0000 6
b0000 7
b0000 8
b0000 9
b0000 :
b0000 ;
b0000 <
b0000 =
b0000 >
b0000 ?
b0000 @
b0000 A
b0000 B
b0000 C
b0000 D
b0000 E
b0000 F
b0000 G
b0000 H
b0000 I
b00000000000000000000000000000100 J
#1
13
#2
03
b0001 6
b0001 7
#3
b0001 $
13
b0001 :
#4
03
b0010 6
b0010 7
#5
b0010 %
13
b0010 ;
#6
03
b0011 6
b0011 7
#7
b0011 &
13
b0011 <
#8
03
b0100 6
b0100 7
#9
b0100 '
13
b0100 =
#10
03
b0101 6
b0101 7
#11
b0101 (
13
b0101 >
#12
03
b0110 6
b0110 7
#13
b0110 )
13
b0110 ?
#14
03
b0111 6
b0111 7
#15
b0111 *
13
b0111 @
#16
03
b1000 6
b1000 7
#17
b1000 +
13
b1000 A
#18
03
b1001 6
b1001 7
#19
b1001 ,
13
b1001 B
#20
03
b1010 6
b1010 7
#21
b1010 -
13
b1010 C
#22
03
b1011 6
b1011 7
#23
b1011 .
13
b1011 D
#24
03
b1100 6
b1100 7
#25
b1100 /
13
b1100 E
#26
03
b1101 6
b1101 7
#27
b1101 0
13
b1101 F
#28
03
b1110 6
b1110 7
#29
b1110 1
13
b1110 G
#30
03
b1111 6
b1111 7
#31
b1111 2
13
b1111 H
#32
03
#33
05
b0000 6
#34
13
#35
03
b0001 6
#36
13
b0001 8
#37
03
b0010 6
#38
13
b0010 8
#39
03
b0011 6
#40
13
b0011 8
#41
03
b0100 6
#42
13
b0100 8
#43
03
b0101 6
#44
13
b0101 8
#45
03
b0110 6
#46
13
b0110 8
#47
03
b0111 6
#48
13
b0111 8
#49
03
b1000 6
#50
13
b1000 8
#51
03
b1001 6
#52
13
b1001 8
#53
03
b1010 6
#54
13
b1010 8
#55
03
b1011 6
#56
13
b1011 8
#57
03
b1100 6
#58
13
b1100 8
#59
03
b1101 6
#60
13
b1101 8
#61
03
b1110 6
#62
13
b1110 8
#63
03
b1111 6
#64
13
b1111 8
#65
03
#66
13
#67
b0000 $
b0000 %
b0000 &
b0000 '
b0000 (
b0000 )
b0000 *
b0000 +
b0000 ,
b0000 -
b0000 .
b0000 /
b0000 0
b0000 1
b0000 2
03
14
b0000 8
b0000 :
b0000 ;
b0000 <
b0000 =
b0000 >
b0000 ?
b0000 @
b0000 A
b0000 B
b0000 C
b0000 D
b0000 E
b0000 F
b0000 G
b0000 H
b1111 I
#68
13
04
